…
[ Info: Epoch 37
[ Info: Epoch 38
[ Info: Epoch 39
[ Info: Epoch 40
[ Info: Epoch 41
[ Info: Epoch 42
[ Info: Epoch 43
[ Info: Epoch 44
[ Info: Epoch 45
[ Info: Epoch 46
[ Info: Epoch 47
[ Info: Epoch 48
[ Info: Epoch 49
[ Info: Epoch 50
867×12 DataFrame
 Row │ nm_short                      qt_dt  tkr   delta      delta_alt    beta      w          c         assets    nvi_benchmark  p_bar     b
     │ Any                           Any    Any   Any        Any          Any       Any        Any       Any       Any            Any       Any
─────┼───────────────────────────────────────────────────────────────────────────────────────────────────────────────────────────────────────────────
   1 │ JPMORGAN CHASE & CO           195    JPM   0.0106652  0.00862097   0.56278   0.168059   1.45164   2.17505   11.0931        2.00699   0.877498
   2 │ CITIGROUP                     195    C     0.0647046  0.0475393    0.481591  0.144022   1.38565   1.93847   11.0931        1.79445   0.930258
   3 │ BANK OF AMER CORP             195    BAC   0.016278   0.0117393    0.50803   0.17871    1.51681   1.82207   11.0931        1.64336   0.808482
   4 │ WELLS FARGO & CO              195    WFC   0.0047069  0.00462975   0.397362  0.102316   1.15898   1.30964   11.0931        1.20732   0.727579
   5 │ GOLDMAN SACHS GROUP INC       195    GS    0.0253824  0.0282284    missing   0.04922    missing   1.08177   missing        1.03255   missing
   6 │ AMERICAN INTERNATIONAL GROUP  195    AIG   0.057924   0.0455341    missing   0.082995   missing   1.02224   missing        0.939242  missing
   7 │ MORGAN STANLEY                195    MS    0.0892237  0.131335     missing   0.035765   missing   0.987403  missing        0.951638  missing
   8 │ MERRILL LYNCH  CO INC         195    BAC2  0.0602485  0.0550379    missing   0.0406288  missing   0.87578   missing        0.835151  missing
  ⋮  │              ⋮                  ⋮     ⋮        ⋮           ⋮          ⋮          ⋮         ⋮         ⋮            ⋮           ⋮         ⋮
 860 │ SECOND STREET CAPITAL INC     195    CTON  0.299511   0.241776     missing   1.026e-6   missing   4.014e-6  missing        2.988e-6  missing
 861 │ CAMBRIDGE HOLDINGS LTD        195    CDGD  0.0476988  0.0492359    missing   1.313e-6   missing   1.967e-6  missing        6.54e-7   missing
 862 │ NORAM CAPITAL HOLDINGS INC    195    NRMH  0.244393   0.242803     missing   1.09e-6    missing   1.628e-6  missing        5.38e-7   missing
 863 │ UMC INC                       195    UMCN  0.126107   0.225341     missing   4.59e-7    missing   9.66e-7   missing        5.07e-7   missing
 864 │ RECEIVABLE ACQ MGMT -OLD      195    CSEI  0.0594649  0.039179     missing   4.69e-7    missing   5.22e-7   missing        5.3e-8    missing
 865 │ NOCOPI TECHNOLOGIES INC       195    NNUP  0.0232885  0.0182395    missing   0.0        missing   4.49e-7   missing        4.49e-7   missing
 866 │ ST LAWRENCE SEAWAY CORP-OLD   195    CRBO  0.0044543  0.00446339   missing   9.5e-8     missing   9.9e-8    missing        4.0e-9    missing
 867 │ INVENT VENTURES INC           195    IDEA  0.0152749  0.0119091    missing   3.0e-9     missing   3.5e-8    missing        3.2e-8    missing
                                                                                                                                     851 rows omittedloss(x_test, y_test) = 3.6992514f0
…
